Division,WeightClassKg,Place,Name,Team,BodyweightKg,Best3SquatKg,Best3BenchKg,Best3DeadliftKg,TotalKg,Equipment,Event,Sex
Boys,51.71,1,Preston Fox,Lampasas,51.44,142.88,99.79,151.95,394.63,Single-ply,SBD,M
Boys,51.71,2,Colt Baranowski,Smithville,50.71,136.08,70.31,151.95,358.34,Single-ply,SBD,M
Boys,51.71,3,Juan Padron,Navasota,51.71,136.08,70.31,145.15,351.53,Single-ply,SBD,M
Boys,51.71,4,Cody Burklund,Sealy,51.07,124.74,81.65,140.61,347,Single-ply,SBD,M
Boys,51.71,5,Darrian Clark,Lorena,44.63,117.93,63.5,136.08,317.51,Single-ply,SBD,M
Boys,51.71,6,Jose Gonzalez #12,Hillsboro,50.89,113.4,72.57,131.54,317.51,Single-ply,SBD,M
Boys,51.71,7,Roberto Ortiz,Venus,48.08,122.47,72.57,120.2,315.25,Single-ply,SBD,M
Boys,51.71,8,Luke Keller,Llano,48.35,113.4,58.97,122.47,294.84,Single-ply,SBD,M
Boys,51.71,9,Horation Huerta,Salado,51.26,99.79,65.77,117.93,283.5,Single-ply,SBD,M
Boys,51.71,10,Dylan Charles,Gatesville,50.53,111.13,52.16,104.33,267.62,Single-ply,SBD,M
Boys,51.71,11,Zac Brimingham,Alvarado,51.71,90.72,65.77,111.13,267.62,Single-ply,SBD,M
Boys,51.71,NS,Jordan Bass,Godley,,,,,,Single-ply,SBD,M
Boys,55.79,1,Diego Rivera,Mexia,53.98,199.58,117.93,192.78,510.29,Single-ply,SBD,M
Boys,55.79,2,Eduardo Perez,Venus,55.34,192.78,99.79,188.24,480.81,Single-ply,SBD,M
Boys,55.79,3,Noah Pachicano,Taylor,53.52,188.24,111.13,158.76,458.13,Single-ply,SBD,M
Boys,55.79,4,Briley Green,Glen Rose,54.61,145.15,95.25,190.51,430.91,Single-ply,SBD,M
Boys,55.79,5,Kyle Arriola,Lampasas,55.07,147.42,92.99,151.95,392.36,Single-ply,SBD,M
Boys,55.79,6,Hao Tran,Gatesville,55.25,142.88,83.91,149.69,376.48,Single-ply,SBD,M
Boys,55.79,7,Gilberto Olguin,Waco Connally,55.07,131.54,81.65,145.15,358.34,Single-ply,SBD,M
Boys,55.79,8,Ryan Burns,Sealy,54.79,131.54,79.38,140.61,351.53,Single-ply,SBD,M
Boys,55.79,9,Logan Arrington,Navasota,55.79,129.27,74.84,136.08,340.19,Single-ply,SBD,M
Boys,55.79,10,Gabriel Leal,Venus,54.43,124.74,79.38,133.81,337.93,Single-ply,SBD,M
Boys,55.79,11,Tucker Klein,Fredericksburg,55.34,111.13,83.91,140.61,335.66,Single-ply,SBD,M
Boys,55.79,DQ,John Pinkerton,Wimberley,54.79,136.08,86.18,,,Single-ply,SBD,M
Boys,59.87,1,Dillon Graves,Glen Rose,59.51,192.78,122.47,208.65,523.9,Single-ply,SBD,M
Boys,59.87,2,Tye'Rus Jones,Brownwood,59.78,188.24,106.59,192.78,487.61,Single-ply,SBD,M
Boys,59.87,3,Ian Campbell,Navasota,59.06,183.7,127.01,174.63,485.34,Single-ply,SBD,M
Boys,59.87,4,Alex Schaefer,Venus,59.6,195.04,92.99,183.7,471.74,Single-ply,SBD,M
Boys,59.87,5,Ricardo Garcia,Mexia,59.42,147.42,86.18,185.97,419.57,Single-ply,SBD,M
Boys,59.87,6,Ethan Rodriguez,Lorena,58.51,167.83,81.65,167.83,417.3,Single-ply,SBD,M
Boys,59.87,7,Logan Heller,Mexia,59.42,145.15,79.38,140.61,365.14,Single-ply,SBD,M
Boys,59.87,8,Juan Araujo,Taylor,58.15,145.15,63.5,145.15,353.8,Single-ply,SBD,M
Boys,59.87,NS,Drake Grigar,Sealy,,,,,,Single-ply,SBD,M
Boys,59.87,NS,Wyatt Churchman,China Spring,,,,,,Single-ply,SBD,M
Boys,59.87,DQ,Bj Sunday,Mexia,58.24,,,,,Single-ply,SBD,M
Boys,59.87,DQ,Shawnpail Fields,Taylor,58.6,208.65,,,,Single-ply,SBD,M
Boys,67.13,1,Israel Castillo,Venus,66.04,217.72,111.13,217.72,546.58,Single-ply,SBD,M
Boys,67.13,2,Stephen Leal,Taylor,65.77,210.92,102.06,185.97,498.95,Single-ply,SBD,M
Boys,67.13,3,David Barrera,Venus,66.68,206.38,104.33,176.9,487.61,Single-ply,SBD,M
Boys,67.13,4,Devin Jackson,Waco La Vega,66.95,183.7,108.86,183.7,476.27,Single-ply,SBD,M
Boys,67.13,5,Quint Pincelli,Llano,65.59,172.37,113.4,185.97,471.74,Single-ply,SBD,M
Boys,67.13,6,Ryan Jackson,Burnet,64.59,179.17,115.67,172.37,467.2,Single-ply,SBD,M
Boys,67.13,7,Trey Goodman,Navasota,65.59,181.44,104.33,181.44,467.2,Single-ply,SBD,M
Boys,67.13,8,Maxx Lauderdale,Glen Rose,66.59,165.56,106.59,181.44,453.59,Single-ply,SBD,M
Boys,67.13,9,Raul Arrizola,Smithville,67.04,156.49,106.59,161.03,424.11,Single-ply,SBD,M
Boys,67.13,10,Donovan Thomas,Navasota,67.13,142.88,97.52,167.83,408.23,Single-ply,SBD,M
Boys,67.13,NS,Koby Allen,Lampasas,,,,,,Single-ply,SBD,M
Boys,67.13,DQ,Noel Outlaw,Brownwood,66.95,,,,,Single-ply,SBD,M
Boys,67.13,DQ,Ricardo Alvarez,Alvarado,65.05,188.24,,,,Single-ply,SBD,M
Boys,67.13,DQ,Isaiah Mesa,Taylor,66.59,274.42,156.49,,,Single-ply,SBD,M
Boys,74.84,1,Sean Williams,Lampasas,71.67,240.4,161.03,238.14,639.57,Single-ply,SBD,M
Boys,74.84,2,AJ Castaneda,Bellville,74.75,249.48,147.42,226.8,623.69,Single-ply,SBD,M
Boys,74.84,3,Javier Solis,Wimberley,68.13,226.8,129.27,206.38,562.45,Single-ply,SBD,M
Boys,74.84,4,Jack Jerome,Lampasas,70.13,192.78,133.81,192.78,519.36,Single-ply,SBD,M
Boys,74.84,5,Joshua Handley,Fredericksburg,74.57,179.17,129.27,201.85,510.29,Single-ply,SBD,M
Boys,74.84,6,Eloy Castillo,Brownwood,73.21,174.63,122.47,210.92,508.02,Single-ply,SBD,M
Boys,74.84,7,Michael Cornish,Lampasas,73.21,192.78,106.59,201.85,501.22,Single-ply,SBD,M
Boys,74.84,8,Landry Bolin,Liberty Hill,73.84,170.1,122.47,204.12,496.68,Single-ply,SBD,M
Boys,74.84,9,Blake Boyd,Alvarado,73.66,181.44,115.67,170.1,467.2,Single-ply,SBD,M
Boys,74.84,DQ,Joshua Beachum,Mexia,70.31,,,,,Single-ply,SBD,M
Boys,74.84,DQ,Hugh Shelton,Taylor,73.66,219.99,120.2,,,Single-ply,SBD,M
Boys,74.84,DQ,Christian Yannins,Taylor,74.39,,,,,Single-ply,SBD,M
Boys,82.1,1,Andrew Wyatt,Smithville,76.75,215.46,136.08,233.6,585.13,Single-ply,SBD,M
Boys,82.1,2,Ben Roberson,Robinson,79.83,231.33,129.27,224.53,585.13,Single-ply,SBD,M
Boys,82.1,3,Connor Cook,Salado,80.38,219.99,138.35,224.53,582.87,Single-ply,SBD,M
Boys,82.1,4,Luis Coronado,Llano,79.38,244.94,138.35,197.31,580.6,Single-ply,SBD,M
Boys,82.1,5,Kalob Jonas,Smithville,79.92,208.65,124.74,231.33,564.72,Single-ply,SBD,M
Boys,82.1,6,Daunte Cuffie,Lampasas,80.65,201.85,140.61,206.38,548.85,Single-ply,SBD,M
Boys,82.1,7,Nolan Keller,Llano,78.56,197.31,129.27,219.99,546.58,Single-ply,SBD,M
Boys,82.1,8,Devin Lummus,Godley,81.74,213.19,129.27,195.04,537.51,Single-ply,SBD,M
Boys,82.1,9,Carson Ford,Lorena,79.29,199.58,122.47,213.19,535.24,Single-ply,SBD,M
Boys,82.1,10,Canon Arnold,Alvarado,81.47,204.12,136.08,190.51,530.7,Single-ply,SBD,M
Boys,82.1,11,Elias Reyes,Alvarado,81.1,204.12,113.4,199.58,517.1,Single-ply,SBD,M
Boys,82.1,12,Cooper Wagenschein,Robinson,80.47,192.78,113.4,204.12,510.29,Single-ply,SBD,M
Boys,82.1,DQ,Neiman Turner,Hillsboro,80.74,,,,,Single-ply,SBD,M
Boys,89.81,1,Michael Nguyen,Lampasas,87.45,231.33,179.17,272.16,682.66,Single-ply,SBD,M
Boys,89.81,2,Nomar Rivera,Smithville,85.91,242.67,147.42,244.94,635.03,Single-ply,SBD,M
Boys,89.81,3,Hunter Isham,Lorena,87.63,217.72,158.76,226.8,603.28,Single-ply,SBD,M
Boys,89.81,4,Rolando Ramirez,Hillsboro,87.54,219.99,142.88,201.85,564.72,Single-ply,SBD,M
Boys,89.81,5,Sammy Segura,Giddings,88.36,219.99,142.88,195.04,557.92,Single-ply,SBD,M
Boys,89.81,6,Will Sebera,Fredericksburg,83.91,192.78,136.08,226.8,555.65,Single-ply,SBD,M
Boys,89.81,7,Issac De La Cruz,Stephenville,86.45,210.92,131.54,204.12,546.58,Single-ply,SBD,M
Boys,89.81,8,Eston Epton,Fredericksburg,84.91,183.7,129.27,208.65,521.63,Single-ply,SBD,M
Boys,89.81,9,Titus Terrell,Navasota,85,192.78,120.2,192.78,505.76,Single-ply,SBD,M
Boys,89.81,10,Lakota Lawrence,Liberty Hill,87.82,183.7,131.54,190.51,505.76,Single-ply,SBD,M
Boys,89.81,DQ,Joctan Librado,Hillsboro,89.81,,,,,Single-ply,SBD,M
Boys,89.81,DQ,Dre'Vaun Cooper,Mexia,87.72,,,,,Single-ply,SBD,M
Boys,99.79,1,Christopher Flores,Hillsboro,95.8,256.28,183.7,215.46,655.44,Single-ply,SBD,M
Boys,99.79,2,Matthew Carter #2,Liberty Hill,94.89,238.14,142.88,244.94,625.96,Single-ply,SBD,M
Boys,99.79,3,Logan Davison,Lorena,97.34,226.8,154.22,226.8,607.81,Single-ply,SBD,M
Boys,99.79,4,Sterling Harris,Lorena,98.7,226.8,154.22,217.72,598.74,Single-ply,SBD,M
Boys,99.79,5,Jacob Byrd #3,Lorena,94.98,226.8,145.15,215.46,587.4,Single-ply,SBD,M
Boys,99.79,6,Tanner Stroud,Glen Rose,97.16,204.12,147.42,208.65,560.19,Single-ply,SBD,M
Boys,99.79,7,Ethan Duckworth,China Spring,98.61,190.51,140.61,206.38,537.51,Single-ply,SBD,M
Boys,99.79,8,Ryan Starritt,Salado,97.34,213.19,124.74,197.31,535.24,Single-ply,SBD,M
Boys,99.79,9,Tommy Barker,Salado,99.79,201.85,131.54,195.04,528.44,Single-ply,SBD,M
Boys,99.79,10,Colton Tucker,Lorena,92.62,199.58,124.74,195.04,519.36,Single-ply,SBD,M
Boys,99.79,NS,Jesus Oranday,Taylor,,,,,,Single-ply,SBD,M
Boys,99.79,DQ,Cade Lewis,Venus,93.44,215.46,113.4,,,Single-ply,SBD,M
Boys,99.79,DQ,Weston Brown,Gatesville,90.54,195.04,,,,Single-ply,SBD,M
Boys,109.77,1,Roger Craig,Burnet,107.68,249.48,176.9,238.14,664.51,Single-ply,SBD,M
Boys,109.77,2,Nic Lara,Glen Rose,100.79,263.08,158.76,235.87,657.71,Single-ply,SBD,M
Boys,109.77,3,Justin Montgomery,Liberty Hill,108.41,272.16,156.49,226.8,655.44,Single-ply,SBD,M
Boys,109.77,4,Ray Dixon,Llano,107.68,213.19,149.69,247.21,610.08,Single-ply,SBD,M
Boys,109.77,5,Ronald Lee,Navasota,107.41,235.87,136.08,233.6,605.55,Single-ply,SBD,M
Boys,109.77,6,Jordan Rios,Mexia,103.6,235.87,149.69,213.19,598.74,Single-ply,SBD,M
Boys,109.77,7,Rudy Esparza,Lampasas,107.23,226.8,140.61,226.8,594.21,Single-ply,SBD,M
Boys,109.77,8,Richard Rogers,Giddings,100.15,226.8,124.74,231.33,582.87,Single-ply,SBD,M
Boys,109.77,9,Zach Powell,Glen Rose,107.32,217.72,136.08,226.8,580.6,Single-ply,SBD,M
Boys,109.77,10,Jeremy Rodgers,Lampasas,102.42,210.92,124.74,235.87,571.53,Single-ply,SBD,M
Boys,109.77,NS,Daniel Wilde,Robinson,,,,,,Single-ply,SBD,M
Boys,109.77,DQ,Hilario Rodriguez,Navasota,104.96,,,,,Single-ply,SBD,M
Boys,124.74,1,Dakoda Trull,Llano,119.93,376.48,213.19,281.23,870.9,Single-ply,SBD,M
Boys,124.74,2,Jairo Rodriguez,Waco La Vega,122.56,272.16,165.56,242.67,680.39,Single-ply,SBD,M
Boys,124.74,3,Jim Hitchcock,Gatesville,118.39,274.42,145.15,238.14,657.71,Single-ply,SBD,M
Boys,124.74,4,Kaiser Forcade,Fredericksburg,120.2,258.55,136.08,231.33,625.96,Single-ply,SBD,M
Boys,124.74,5,James Baggett,Waco La Vega,114.31,231.33,167.83,215.46,614.62,Single-ply,SBD,M
Boys,124.74,6,Zac Hudgins,Burnet,111.77,231.33,145.15,226.8,603.28,Single-ply,SBD,M
Boys,124.74,7,Theo Bryant,Brownwood,123.92,263.08,117.93,208.65,589.67,Single-ply,SBD,M
Boys,124.74,8,Luke Williams #3,Llano,112.76,226.8,131.54,217.72,576.06,Single-ply,SBD,M
Boys,124.74,9,Jacob Snoddy,Gatesville,110.22,206.38,140.61,215.46,562.45,Single-ply,SBD,M
Boys,124.74,10,Josh Escobedo,Robinson,111.4,222.26,131.54,188.24,542.04,Single-ply,SBD,M
Boys,124.74,11,Collin Black,Godley,113.76,204.12,111.13,199.58,514.83,Single-ply,SBD,M
Boys,124.74,DQ,Trace Lopez,Taylor,116.39,219.99,,,,Single-ply,SBD,M
Boys,124.74+,1,Isaias Hernandez,Hillsboro,137.44,322.05,192.78,265.35,780.18,Single-ply,SBD,M
Boys,124.74+,2,Kaleb Barho,Smithville,127.01,317.51,158.76,226.8,703.07,Single-ply,SBD,M
Boys,124.74+,3,Andrew Toledo,Robinson,128.82,274.42,163.29,256.28,694,Single-ply,SBD,M
Boys,124.74+,4,Hayden Shaw,Glen Rose,127.46,267.62,147.42,244.94,659.98,Single-ply,SBD,M
Boys,124.74+,5,Logan Begesse,China Spring,126.28,278.96,163.29,215.46,657.71,Single-ply,SBD,M
Boys,124.74+,6,Felipe Alvarado,Navasota,125.19,247.21,147.42,217.72,612.35,Single-ply,SBD,M
Boys,124.74+,7,Seth Carpenter,Burnet,130.82,219.99,149.69,215.46,585.13,Single-ply,SBD,M
Boys,124.74+,8,D'Anthony Jackson,Giddings,126.82,226.8,145.15,210.92,582.87,Single-ply,SBD,M
Boys,124.74+,9,Trace Snyder,Robinson,152.41,226.8,124.74,219.99,571.53,Single-ply,SBD,M
Boys,124.74+,10,Tyler Johnson,Lampasas,141.52,249.48,131.54,183.7,564.72,Single-ply,SBD,M
Boys,124.74+,DQ,Jacob Gallimore,Robinson,144.24,215.46,,,,Single-ply,SBD,M
Boys,124.74+,DQ,Jayln Jones,Brownwood,128.19,219.99,108.86,,,Single-ply,SBD,M
